[Project 1 based on Angrist and Krueger (1991, QJE)]
…
path = "G:/Nouveau/SaiRstudio/project/"
pums <- read.table(paste(path,"database/QOB.raw",sep=""),
                   header           = FALSE,
                   stringsAsFactors = FALSE)
colnames(pums)[c(1,2,4,5,6,9:13,16,18,19:21,24,25,27)] <- c("AGE", "AGEQ", "EDUC",
                            "ENOCENT","ESOCENT","LWKLYWGE", "MARRIED", "MIDATL", "MT",                              "NEWENG", "CENSUS", "QOB", "RACE", "SMSA", "SOATL", "WNOCENT",                            "WSOCENT", "YOB")
pums <- as_tibble(pums)
pums

## # A tibble: 816,435 x 27
##      AGE  AGEQ    V3  EDUC ENOCENT ESOCENT    V7    V8 LWKLYWGE MARRIED MIDATL
##    <int> <dbl> <int> <int>   <int>   <int> <int> <dbl>    <dbl>   <int>  <int>
##  1    47 1947      2    12       0       0    14 10.2      6.25       1      0
##  2    46 1946.     2    12       0       0    14  9.80     5.85       1      0
##  3    50 1950      2    12       0       0    14 10.6      6.65       1      0
##  4    47 1947      2    16       0       0    18 10.7      6.71       1      0
##  5    42 1942.     2    14       0       0    16 10.3      6.36       1      0
##  6    44 1944.     2    12       0       0    14  9.39     5.44       1      0
##  7    42 1942      2    12       0       0    14 10.3      6.39       1      0
##  8    50 1950      2    12       0       0    14  7.60     4.61       1      0
##  9    40 1940.     2    12       0       0    14 10.5      6.55       1      0
## 10    43 1944.     2     7       0       0     9 11.0      7.02       0      0
## # ... with 816,425 more rows, and 16 more variables: MT <int>, NEWENG <int>,
## #   V14 <int>, V15 <int>, CENSUS <int>, V17 <int>, QOB <int>, RACE <int>,
## #   SMSA <int>, SOATL <int>, V22 <int>, V23 <int>, WNOCENT <int>,
## #   WSOCENT <int>, V26 <int>, YOB <int>
…
